module github.com/unit410/eth-ledger-tool

go 1.17

require github.com/ethereum/go-ethereum v1.10.16

require (
	github.com/btcsuite/btcd v0.20.1-beta // indirect
	github.com/go-stack/stack v1.8.0 // indirect
	github.com/golang/protobuf v1.4.3 // indirect
	github.com/karalabe/usb v0.0.2 // indirect
	golang.org/x/crypto v0.0.0-20210322153248-0c34fe9e7dc2 // indirect
	golang.org/x/sys v0.0.0-20210816183151-1e6c022a8912 // indirect
	google.golang.org/protobuf v1.23.0 // indirect
)
